%YAML 1.1
%TAG !u! tag:unity3d.com,2011:
--- !u!1 &1798483002054539592
GameObject:
  m_ObjectHideFlags: 0
  m_CorrespondingSourceObject: {fileID: 0}
  m_PrefabInstance: {fileID: 0}
  m_PrefabAsset: {fileID: 0}
  serializedVersion: 6
  m_Component:
  - component: {fileID: 4664981585191137942}
  - component: {fileID: 3332132228918043565}
  - component: {fileID: 3719161428992148410}
  m_Layer: 31
  m_Name: Layer1
  m_TagString: Untagged
  m_Icon: {fileID: 0}
  m_NavMeshLayer: 0
  m_StaticEditorFlags: 0
  m_IsActive: 1
--- !u!4 &4664981585191137942
Transform:
  m_ObjectHideFlags: 0
  m_CorrespondingSourceObject: {fileID: 0}
  m_PrefabInstance: {fileID: 0}
  m_PrefabAsset: {fileID: 0}
  m_GameObject: {fileID: 1798483002054539592}
  m_LocalRotation: {x: -0, y: -0, z: -0, w: 1}
  m_LocalPosition: {x: 0, y: 0, z: 0}
  m_LocalScale: {x: 1, y: 1, z: 1}
  m_Children: []
  m_Father: {fileID: 6840834353503201436}
  m_RootOrder: 0
  m_LocalEulerAnglesHint: {x: 0, y: 0, z: 0}
--- !u!1839735485 &3332132228918043565
Tilemap:
  m_ObjectHideFlags: 0
  m_CorrespondingSourceObject: {fileID: 0}
  m_PrefabInstance: {fileID: 0}
  m_PrefabAsset: {fileID: 0}
  m_GameObject: {fileID: 1798483002054539592}
  m_Enabled: 1
  m_Tiles:
  - first: {x: -1, y: -4, z: 0}
    second:
      m_TileIndex: 43
      m_TileSpriteIndex: 43
      m_TileMatrixIndex: 0
      m_TileColorIndex: 0
      m_ObjectToInstantiate: {fileID: 0}
      m_TileFlags: 1
      m_ColliderType: 1
  - first: {x: 0, y: -4, z: 0}
    second:
      m_TileIndex: 44
      m_TileSpriteIndex: 44
      m_TileMatrixIndex: 0
      m_TileColorIndex: 0
      m_ObjectToInstantiate: {fileID: 0}
      m_TileFlags: 1
      m_ColliderType: 1
  - first: {x: 1, y: -4, z: 0}
    second:
      m_TileIndex: 45
      m_TileSpriteIndex: 45
      m_TileMatrixIndex: 0
      m_TileColorIndex: 0
      m_ObjectToInstantiate: {fileID: 0}
      m_TileFlags: 1
      m_ColliderType: 1
  - first: {x: 2, y: -4, z: 0}
    second:
      m_TileIndex: 46
      m_TileSpriteIndex: 46
      m_TileMatrixIndex: 0
      m_TileColorIndex: 0
      m_ObjectToInstantiate: {fileID: 0}
      m_TileFlags: 1
      m_ColliderType: 1
  - first: {x: 3, y: -4, z: 0}
    second:
      m_TileIndex: 47
      m_TileSpriteIndex: 47
      m_TileMatrixIndex: 0
      m_TileColorIndex: 0
      m_ObjectToInstantiate: {fileID: 0}
      m_TileFlags: 1
      m_ColliderType: 1
  - first: {x: 4, y: -4, z: 0}
    second:
      m_TileIndex: 48
      m_TileSpriteIndex: 48
      m_TileMatrixIndex: 0
      m_TileColorIndex: 0
      m_ObjectToInstantiate: {fileID: 0}
      m_TileFlags: 1
      m_ColliderType: 1
  - first: {x: 5, y: -4, z: 0}
    second:
      m_TileIndex: 49
      m_TileSpriteIndex: 49
      m_TileMatrixIndex: 0
      m_TileColorIndex: 0
      m_ObjectToInstantiate: {fileID: 0}
      m_TileFlags: 1
      m_ColliderType: 1
  - first: {x: 6, y: -4, z: 0}
    second:
      m_TileIndex: 50
      m_TileSpriteIndex: 50
      m_TileMatrixIndex: 0
      m_TileColorIndex: 0
      m_ObjectToInstantiate: {fileID: 0}
      m_TileFlags: 1
      m_ColliderType: 1
  - first: {x: -1, y: -3, z: 0}
    second:
      m_TileIndex: 34
      m_TileSpriteIndex: 34
      m_TileMatrixIndex: 0
      m_TileColorIndex: 0
      m_ObjectToInstantiate: {fileID: 0}
      m_TileFlags: 1
      m_ColliderType: 1
  - first: {x: 0, y: -3, z: 0}
    second:
      m_TileIndex: 35
      m_TileSpriteIndex: 35
      m_TileMatrixIndex: 0
      m_TileColorIndex: 0
      m_ObjectToInstantiate: {fileID: 0}
      m_TileFlags: 1
      m_ColliderType: 1
  - first: {x: 1, y: -3, z: 0}
    second:
      m_TileIndex: 36
      m_TileSpriteIndex: 36
      m_TileMatrixIndex: 0
      m_TileColorIndex: 0
      m_ObjectToInstantiate: {fileID: 0}
      m_TileFlags: 1
      m_ColliderType: 1
  - first: {x: 2, y: -3, z: 0}
    second:
      m_TileIndex: 37
      m_TileSpriteIndex: 37
      m_TileMatrixIndex: 0
      m_TileColorIndex: 0
      m_ObjectToInstantiate: {fileID: 0}
      m_TileFlags: 1
      m_ColliderType: 1
  - first: {x: 3, y: -3, z: 0}
    second:
      m_TileIndex: 38
      m_TileSpriteIndex: 38
      m_TileMatrixIndex: 0
      m_TileColorIndex: 0
      m_ObjectToInstantiate: {fileID: 0}
      m_TileFlags: 1
      m_ColliderType: 1
  - first: {x: 5, y: -3, z: 0}
    second:
      m_TileIndex: 39
      m_TileSpriteIndex: 39
      m_TileMatrixIndex: 0
      m_TileColorIndex: 0
      m_ObjectToInstantiate: {fileID: 0}
      m_TileFlags: 1
      m_ColliderType: 1
  - first: {x: 6, y: -3, z: 0}
    second:
      m_TileIndex: 40
      m_TileSpriteIndex: 40
      m_TileMatrixIndex: 0
      m_TileColorIndex: 0
      m_ObjectToInstantiate: {fileID: 0}
      m_TileFlags: 1
      m_ColliderType: 1
  - first: {x: 7, y: -3, z: 0}
    second:
      m_TileIndex: 41
      m_TileSpriteIndex: 41
      m_TileMatrixIndex: 0
      m_TileColorIndex: 0
      m_ObjectToInstantiate: {fileID: 0}
      m_TileFlags: 1
      m_ColliderType: 1
  - first: {x: 8, y: -3, z: 0}
    second:
      m_TileIndex: 42
      m_TileSpriteIndex: 42
      m_TileMatrixIndex: 0
      m_TileColorIndex: 0
      m_ObjectToInstantiate: {fileID: 0}
      m_TileFlags: 1
      m_ColliderType: 1
  - first: {x: -1, y: -2, z: 0}
    second:
      m_TileIndex: 25
      m_TileSpriteIndex: 25
      m_TileMatrixIndex: 0
      m_TileColorIndex: 0
      m_ObjectToInstantiate: {fileID: 0}
      m_TileFlags: 1
      m_ColliderType: 1
  - first: {x: 0, y: -2, z: 0}
    second:
      m_TileIndex: 26
      m_TileSpriteIndex: 26
      m_TileMatrixIndex: 0
      m_TileColorIndex: 0
      m_ObjectToInstantiate: {fileID: 0}
      m_TileFlags: 1
      m_ColliderType: 1
  - first: {x: 1, y: -2, z: 0}
    second:
      m_TileIndex: 27
      m_TileSpriteIndex: 27
      m_TileMatrixIndex: 0
      m_TileColorIndex: 0
      m_ObjectToInstantiate: {fileID: 0}
      m_TileFlags: 1
      m_ColliderType: 1
  - first: {x: 2, y: -2, z: 0}
    second:
      m_TileIndex: 28
      m_TileSpriteIndex: 28
      m_TileMatrixIndex: 0
      m_TileColorIndex: 0
      m_ObjectToInstantiate: {fileID: 0}
      m_TileFlags: 1
      m_ColliderType: 1
  - first: {x: 3, y: -2, z: 0}
    second:
      m_TileIndex: 29
      m_TileSpriteIndex: 29
      m_TileMatrixIndex: 0
      m_TileColorIndex: 0
      m_ObjectToInstantiate: {fileID: 0}
      m_TileFlags: 1
      m_ColliderType: 1
  - first: {x: 5, y: -2, z: 0}
    second:
      m_TileIndex: 30
      m_TileSpriteIndex: 30
      m_TileMatrixIndex: 0
      m_TileColorIndex: 0
      m_ObjectToInstantiate: {fileID: 0}
      m_TileFlags: 1
      m_ColliderType: 1
  - first: {x: 6, y: -2, z: 0}
    second:
      m_TileIndex: 31
      m_TileSpriteIndex: 31
      m_TileMatrixIndex: 0
      m_TileColorIndex: 0
      m_ObjectToInstantiate: {fileID: 0}
      m_TileFlags: 1
      m_ColliderType: 1
  - first: {x: 7, y: -2, z: 0}
    second:
      m_TileIndex: 32
      m_TileSpriteIndex: 32
      m_TileMatrixIndex: 0
      m_TileColorIndex: 0
      m_ObjectToInstantiate: {fileID: 0}
      m_TileFlags: 1
      m_ColliderType: 1
  - first: {x: 8, y: -2, z: 0}
    second:
      m_TileIndex: 33
      m_TileSpriteIndex: 33
      m_TileMatrixIndex: 0
      m_TileColorIndex: 0
      m_ObjectToInstantiate: {fileID: 0}
      m_TileFlags: 1
      m_ColliderType: 1
  - first: {x: -1, y: -1, z: 0}
    second:
      m_TileIndex: 17
      m_TileSpriteIndex: 17
      m_TileMatrixIndex: 0
      m_TileColorIndex: 0
      m_ObjectToInstantiate: {fileID: 0}
      m_TileFlags: 1
      m_ColliderType: 1
  - first: {x: 0, y: -1, z: 0}
    second:
      m_TileIndex: 18
      m_TileSpriteIndex: 18
      m_TileMatrixIndex: 0
      m_TileColorIndex: 0
      m_ObjectToInstantiate: {fileID: 0}
      m_TileFlags: 1
      m_ColliderType: 1
  - first: {x: 1, y: -1, z: 0}
    second:
      m_TileIndex: 19
      m_TileSpriteIndex: 19
      m_TileMatrixIndex: 0
      m_TileColorIndex: 0
      m_ObjectToInstantiate: {fileID: 0}
      m_TileFlags: 1
      m_ColliderType: 1
  - first: {x: 2, y: -1, z: 0}
    second:
      m_TileIndex: 20
      m_TileSpriteIndex: 20
      m_TileMatrixIndex: 0
      m_TileColorIndex: 0
      m_ObjectToInstantiate: {fileID: 0}
      m_TileFlags: 1
      m_ColliderType: 1
  - first: {x: 5, y: -1, z: 0}
    second:
      m_TileIndex: 21
      m_TileSpriteIndex: 21
      m_TileMatrixIndex: 0
      m_TileColorIndex: 0
      m_ObjectToInstantiate: {fileID: 0}
      m_TileFlags: 1
      m_ColliderType: 1
  - first: {x: 6, y: -1, z: 0}
    second:
      m_TileIndex: 22
      m_TileSpriteIndex: 22
      m_TileMatrixIndex: 0
      m_TileColorIndex: 0
      m_ObjectToInstantiate: {fileID: 0}
      m_TileFlags: 1
      m_ColliderType: 1
  - first: {x: 7, y: -1, z: 0}
    second:
      m_TileIndex: 23
      m_TileSpriteIndex: 23
      m_TileMatrixIndex: 0
      m_TileColorIndex: 0
      m_ObjectToInstantiate: {fileID: 0}
      m_TileFlags: 1
      m_ColliderType: 1
  - first: {x: 8, y: -1, z: 0}
    second:
      m_TileIndex: 24
      m_TileSpriteIndex: 24
      m_TileMatrixIndex: 0
      m_TileColorIndex: 0
      m_ObjectToInstantiate: {fileID: 0}
      m_TileFlags: 1
      m_ColliderType: 1
  - first: {x: -1, y: 0, z: 0}
    second:
      m_TileIndex: 8
      m_TileSpriteIndex: 8
      m_TileMatrixIndex: 0
      m_TileColorIndex: 0
      m_ObjectToInstantiate: {fileID: 0}
      m_TileFlags: 1
      m_ColliderType: 1
  - first: {x: 0, y: 0, z: 0}
    second:
      m_TileIndex: 9
      m_TileSpriteIndex: 9
      m_TileMatrixIndex: 0
      m_TileColorIndex: 0
      m_ObjectToInstantiate: {fileID: 0}
      m_TileFlags: 1
      m_ColliderType: 1
  - first: {x: 1, y: 0, z: 0}
    second:
      m_TileIndex: 10
      m_TileSpriteIndex: 10
      m_TileMatrixIndex: 0
      m_TileColorIndex: 0
      m_ObjectToInstantiate: {fileID: 0}
      m_TileFlags: 1
      m_ColliderType: 1
  - first: {x: 2, y: 0, z: 0}
    second:
      m_TileIndex: 11
      m_TileSpriteIndex: 11
      m_TileMatrixIndex: 0
      m_TileColorIndex: 0
      m_ObjectToInstantiate: {fileID: 0}
      m_TileFlags: 1
      m_ColliderType: 1
  - first: {x: 3, y: 0, z: 0}
    second:
      m_TileIndex: 12
      m_TileSpriteIndex: 12
      m_TileMatrixIndex: 0
      m_TileColorIndex: 0
      m_ObjectToInstantiate: {fileID: 0}
      m_TileFlags: 1
      m_ColliderType: 1
  - first: {x: 4, y: 0, z: 0}
    second:
      m_TileIndex: 13
      m_TileSpriteIndex: 13
      m_TileMatrixIndex: 0
      m_TileColorIndex: 0
      m_ObjectToInstantiate: {fileID: 0}
      m_TileFlags: 1
      m_ColliderType: 1
  - first: {x: 5, y: 0, z: 0}
    second:
      m_TileIndex: 14
      m_TileSpriteIndex: 14
      m_TileMatrixIndex: 0
      m_TileColorIndex: 0
      m_ObjectToInstantiate: {fileID: 0}
      m_TileFlags: 1
      m_ColliderType: 1
  - first: {x: 6, y: 0, z: 0}
    second:
      m_TileIndex: 15
      m_TileSpriteIndex: 15
      m_TileMatrixIndex: 0
      m_TileColorIndex: 0
      m_ObjectToInstantiate: {fileID: 0}
      m_TileFlags: 1
      m_ColliderType: 1
  - first: {x: 8, y: 0, z: 0}
    second:
      m_TileIndex: 16
      m_TileSpriteIndex: 16
      m_TileMatrixIndex: 0
      m_TileColorIndex: 0
      m_ObjectToInstantiate: {fileID: 0}
      m_TileFlags: 1
      m_ColliderType: 1
  - first: {x: -1, y: 1, z: 0}
    second:
      m_TileIndex: 0
      m_TileSpriteIndex: 0
      m_TileMatrixIndex: 0
      m_TileColorIndex: 0
      m_ObjectToInstantiate: {fileID: 0}
      m_TileFlags: 1
      m_ColliderType: 1
  - first: {x: 0, y: 1, z: 0}
    second:
      m_TileIndex: 1
      m_TileSpriteIndex: 1
      m_TileMatrixIndex: 0
      m_TileColorIndex: 0
      m_ObjectToInstantiate: {fileID: 0}
      m_TileFlags: 1
      m_ColliderType: 1
  - first: {x: 1, y: 1, z: 0}
    second:
      m_TileIndex: 2
      m_TileSpriteIndex: 2
      m_TileMatrixIndex: 0
      m_TileColorIndex: 0
      m_ObjectToInstantiate: {fileID: 0}
      m_TileFlags: 1
      m_ColliderType: 1
  - first: {x: 2, y: 1, z: 0}
    second:
      m_TileIndex: 3
      m_TileSpriteIndex: 3
      m_TileMatrixIndex: 0
      m_TileColorIndex: 0
      m_ObjectToInstantiate: {fileID: 0}
      m_TileFlags: 1
      m_ColliderType: 1
  - first: {x: 3, y: 1, z: 0}
    second:
      m_TileIndex: 4
      m_TileSpriteIndex: 4
      m_TileMatrixIndex: 0
      m_TileColorIndex: 0
      m_ObjectToInstantiate: {fileID: 0}
      m_TileFlags: 1
      m_ColliderType: 1
  - first: {x: 4, y: 1, z: 0}
    second:
      m_TileIndex: 5
      m_TileSpriteIndex: 5
      m_TileMatrixIndex: 0
      m_TileColorIndex: 0
      m_ObjectToInstantiate: {fileID: 0}
      m_TileFlags: 1
      m_ColliderType: 1
  - first: {x: 5, y: 1, z: 0}
    second:
      m_TileIndex: 6
      m_TileSpriteIndex: 6
      m_TileMatrixIndex: 0
      m_TileColorIndex: 0
      m_ObjectToInstantiate: {fileID: 0}
      m_TileFlags: 1
      m_ColliderType: 1
  - first: {x: 6, y: 1, z: 0}
    second:
      m_TileIndex: 7
      m_TileSpriteIndex: 7
      m_TileMatrixIndex: 0
      m_TileColorIndex: 0
      m_ObjectToInstantiate: {fileID: 0}
      m_TileFlags: 1
      m_ColliderType: 1
  - first: {x: 0, y: 5, z: 0}
    second:
      m_TileIndex: 51
      m_TileSpriteIndex: 1
      m_TileMatrixIndex: 0
      m_TileColorIndex: 0
      m_ObjectToInstantiate: {fileID: 0}
      m_TileFlags: 2
      m_ColliderType: 1
  m_AnimatedTiles: {}
  m_TileAssetArray:
  - m_RefCount: 1
    m_Data: {fileID: 11400000, guid: 96f4819725de3d2499693f78ef863783, type: 2}
  - m_RefCount: 1
    m_Data: {fileID: 11400000, guid: a6be514f305d5dd42aef84736205dfef, type: 2}
  - m_RefCount: 1
    m_Data: {fileID: 11400000, guid: 8a07678ce2e34694998f9a5179e9e0e7, type: 2}
  - m_RefCount: 1
    m_Data: {fileID: 11400000, guid: 6c6d750adcdf5174ab4517bb09b19d05, type: 2}
  - m_RefCount: 1
    m_Data: {fileID: 11400000, guid: 0ad16b0a4bce9ae4fa75caba7ae1b2cb, type: 2}
  - m_RefCount: 1
    m_Data: {fileID: 11400000, guid: efefde732bc473f4cabf0ee9bd4301a3, type: 2}
  - m_RefCount: 1
    m_Data: {fileID: 11400000, guid: 127c56f803acf9241a3d38b796c653d2, type: 2}
  - m_RefCount: 1
    m_Data: {fileID: 11400000, guid: a0e1922e1142fe2419a06cec5ae03b80, type: 2}
  - m_RefCount: 1
    m_Data: {fileID: 11400000, guid: 7f1b5e992e7bd0f42b3cd5831b7bb2a5, type: 2}
  - m_RefCount: 1
    m_Data: {fileID: 11400000, guid: c03702f0e71d5ff468f6b44bef99599b, type: 2}
  - m_RefCount: 1
    m_Data: {fileID: 11400000, guid: 63b71981146540b43bf85b3ff2124924, type: 2}
  - m_RefCount: 1
    m_Data: {fileID: 11400000, guid: 7ff2d0637746a544a86075bd4ec57c25, type: 2}
  - m_RefCount: 1
    m_Data: {fileID: 11400000, guid: 0abad8fe67b354d41ad876e828945278, type: 2}
  - m_RefCount: 1
    m_Data: {fileID: 11400000, guid: da845e108252bf74c9c112d6ca13cefe, type: 2}
  - m_RefCount: 1
    m_Data: {fileID: 11400000, guid: 8684718f5de643247a762ea893069137, type: 2}
  - m_RefCount: 1
    m_Data: {fileID: 11400000, guid: 525400973525b5446af9f1ebc95f6cdd, type: 2}
  - m_RefCount: 1
    m_Data: {fileID: 11400000, guid: 8079bb1673c13f641b101cf439ebe01d, type: 2}
  - m_RefCount: 1
    m_Data: {fileID: 11400000, guid: 620d935ccab0edb4ba07bdd6cdc1e305, type: 2}
  - m_RefCount: 1
    m_Data: {fileID: 11400000, guid: 88cdd11728fa42c4d83e467b695c2905, type: 2}
  - m_RefCount: 1
    m_Data: {fileID: 11400000, guid: e584001ccc4a74b469595325cdee7223, type: 2}
  - m_RefCount: 1
    m_Data: {fileID: 11400000, guid: 30b80d63d70fdaa4dade18a100b3624d, type: 2}
  - m_RefCount: 1
    m_Data: {fileID: 11400000, guid: ed59d59ef1e60734a940d519d9a19e68, type: 2}
  - m_RefCount: 1
    m_Data: {fileID: 11400000, guid: 9b7bc721601854749bacb9ed34f0b84d, type: 2}
  - m_RefCount: 1
    m_Data: {fileID: 11400000, guid: 6cad030c696a15144b277b4b1a9cde4c, type: 2}
  - m_RefCount: 1
    m_Data: {fileID: 11400000, guid: 1b4d47a247d798840837586e99edb27d, type: 2}
  - m_RefCount: 1
    m_Data: {fileID: 11400000, guid: 4444a69e7980aff4f8cf1679fd54435d, type: 2}
  - m_RefCount: 1
    m_Data: {fileID: 11400000, guid: 939ede413ea305b41a3f80a2571732a9, type: 2}
  - m_RefCount: 1
    m_Data: {fileID: 11400000, guid: 05572cc5b96000b488d8021a951c040e, type: 2}
  - m_RefCount: 1
    m_Data: {fileID: 11400000, guid: 83f3e9d2e043bf345977c96659725a41, type: 2}
  - m_RefCount: 1
    m_Data: {fileID: 11400000, guid: 61ac61a2816a8b64a9c53dc5d52974d7, type: 2}
  - m_RefCount: 1
    m_Data: {fileID: 11400000, guid: 0aec51b3255ef514fa3b8770ce396cd8, type: 2}
  - m_RefCount: 1
    m_Data: {fileID: 11400000, guid: 299978d0b5df6fe43a8137e3db89be5c, type: 2}
  - m_RefCount: 1
    m_Data: {fileID: 11400000, guid: dcd6b2c122d1f284597ce73f1de98723, type: 2}
  - m_RefCount: 1
    m_Data: {fileID: 11400000, guid: 4b8b34899c141d046920d2c33f52c91e, type: 2}
  - m_RefCount: 1
    m_Data: {fileID: 11400000, guid: 2d91a890d3720694f8d7a0d29a1b3dad, type: 2}
  - m_RefCount: 1
    m_Data: {fileID: 11400000, guid: 20d18f87c58ddf445844fc0cbb355eec, type: 2}
  - m_RefCount: 1
    m_Data: {fileID: 11400000, guid: f10919a2327b4a944907b8bfab319586, type: 2}
  - m_RefCount: 1
    m_Data: {fileID: 11400000, guid: 981e7e0984daf0848b9014cff3ed64a2, type: 2}
  - m_RefCount: 1
    m_Data: {fileID: 11400000, guid: 0f38a4f56c3455c4e8de271f4a34cd4d, type: 2}
  - m_RefCount: 1
    m_Data: {fileID: 11400000, guid: c4192f7a763fe044c846b927d7ca956c, type: 2}
  - m_RefCount: 1
    m_Data: {fileID: 11400000, guid: c1df022d19a7c0e46a8008a928ac1921, type: 2}
  - m_RefCount: 1
    m_Data: {fileID: 11400000, guid: 2cc70df5cbe798c46828b354d0403e7f, type: 2}
  - m_RefCount: 1
    m_Data: {fileID: 11400000, guid: 41f9a60822af09c47a32752936ebd0e3, type: 2}
  - m_RefCount: 1
    m_Data: {fileID: 11400000, guid: 44ca21d2fbdb54e4cafac82b05764b1f, type: 2}
  - m_RefCount: 1
    m_Data: {fileID: 11400000, guid: 7a564f2b4c9a6d34e83a3a4ac04bc924, type: 2}
  - m_RefCount: 1
    m_Data: {fileID: 11400000, guid: 08abf29f1a5bd124d92a43ead4ea746b, type: 2}
  - m_RefCount: 1
    m_Data: {fileID: 11400000, guid: 8c10dc4d4875f594db3d08dfd944f373, type: 2}
  - m_RefCount: 1
    m_Data: {fileID: 11400000, guid: b72585a01403d904f8dcd07c5c5dd310, type: 2}
  - m_RefCount: 1
    m_Data: {fileID: 11400000, guid: f43686e16448fa5409585bf45efd1e52, type: 2}
  - m_RefCount: 1
    m_Data: {fileID: 11400000, guid: e3c68c22e24fdee49b60a3570eedcba1, type: 2}
  - m_RefCount: 1
    m_Data: {fileID: 11400000, guid: 351997a4f70d6ea489889724f8617255, type: 2}
  - m_RefCount: 1
    m_Data: {fileID: 11400000, guid: 323f13f27fdbea94aa46e33fde9188dc, type: 2}
  m_TileSpriteArray:
  - m_RefCount: 1
    m_Data: {fileID: 21300000, guid: 18c2e9875be795244a037ebf31368a4b, type: 3}
  - m_RefCount: 2
    m_Data: {fileID: 21300002, guid: 18c2e9875be795244a037ebf31368a4b, type: 3}
  - m_RefCount: 1
    m_Data: {fileID: 21300004, guid: 18c2e9875be795244a037ebf31368a4b, type: 3}
  - m_RefCount: 1
    m_Data: {fileID: 21300006, guid: 18c2e9875be795244a037ebf31368a4b, type: 3}
  - m_RefCount: 1
    m_Data: {fileID: 21300008, guid: 18c2e9875be795244a037ebf31368a4b, type: 3}
  - m_RefCount: 1
    m_Data: {fileID: 21300010, guid: 18c2e9875be795244a037ebf31368a4b, type: 3}
  - m_RefCount: 1
    m_Data: {fileID: 21300012, guid: 18c2e9875be795244a037ebf31368a4b, type: 3}
  - m_RefCount: 1
    m_Data: {fileID: 21300014, guid: 18c2e9875be795244a037ebf31368a4b, type: 3}
  - m_RefCount: 1
    m_Data: {fileID: 21300016, guid: 18c2e9875be795244a037ebf31368a4b, type: 3}
  - m_RefCount: 1
    m_Data: {fileID: 21300018, guid: 18c2e9875be795244a037ebf31368a4b, type: 3}
  - m_RefCount: 1
    m_Data: {fileID: 21300020, guid: 18c2e9875be795244a037ebf31368a4b, type: 3}
  - m_RefCount: 1
    m_Data: {fileID: 21300022, guid: 18c2e9875be795244a037ebf31368a4b, type: 3}
  - m_RefCount: 1
    m_Data: {fileID: 21300024, guid: 18c2e9875be795244a037ebf31368a4b, type: 3}
  - m_RefCount: 1
    m_Data: {fileID: 21300026, guid: 18c2e9875be795244a037ebf31368a4b, type: 3}
  - m_RefCount: 1
    m_Data: {fileID: 21300028, guid: 18c2e9875be795244a037ebf31368a4b, type: 3}
  - m_RefCount: 1
    m_Data: {fileID: 21300030, guid: 18c2e9875be795244a037ebf31368a4b, type: 3}
  - m_RefCount: 1
    m_Data: {fileID: 21300032, guid: 18c2e9875be795244a037ebf31368a4b, type: 3}
  - m_RefCount: 1
    m_Data: {fileID: 21300034, guid: 18c2e9875be795244a037ebf31368a4b, type: 3}
  - m_RefCount: 1
    m_Data: {fileID: 21300036, guid: 18c2e9875be795244a037ebf31368a4b, type: 3}
  - m_RefCount: 1
    m_Data: {fileID: 21300038, guid: 18c2e9875be795244a037ebf31368a4b, type: 3}
  - m_RefCount: 1
    m_Data: {fileID: 21300040, guid: 18c2e9875be795244a037ebf31368a4b, type: 3}
  - m_RefCount: 1
    m_Data: {fileID: 21300042, guid: 18c2e9875be795244a037ebf31368a4b, type: 3}
  - m_RefCount: 1
    m_Data: {fileID: 21300044, guid: 18c2e9875be795244a037ebf31368a4b, type: 3}
  - m_RefCount: 1
    m_Data: {fileID: 21300046, guid: 18c2e9875be795244a037ebf31368a4b, type: 3}
  - m_RefCount: 1
    m_Data: {fileID: 21300048, guid: 18c2e9875be795244a037ebf31368a4b, type: 3}
  - m_RefCount: 1
    m_Data: {fileID: 21300050, guid: 18c2e9875be795244a037ebf31368a4b, type: 3}
  - m_RefCount: 1
    m_Data: {fileID: 21300052, guid: 18c2e9875be795244a037ebf31368a4b, type: 3}
  - m_RefCount: 1
    m_Data: {fileID: 21300054, guid: 18c2e9875be795244a037ebf31368a4b, type: 3}
  - m_RefCount: 1
    m_Data: {fileID: 21300056, guid: 18c2e9875be795244a037ebf31368a4b, type: 3}
  - m_RefCount: 1
    m_Data: {fileID: 21300058, guid: 18c2e9875be795244a037ebf31368a4b, type: 3}
  - m_RefCount: 1
    m_Data: {fileID: 21300060, guid: 18c2e9875be795244a037ebf31368a4b, type: 3}
  - m_RefCount: 1
    m_Data: {fileID: 21300062, guid: 18c2e9875be795244a037ebf31368a4b, type: 3}
  - m_RefCount: 1
    m_Data: {fileID: 21300064, guid: 18c2e9875be795244a037ebf31368a4b, type: 3}
  - m_RefCount: 1
    m_Data: {fileID: 21300066, guid: 18c2e9875be795244a037ebf31368a4b, type: 3}
  - m_RefCount: 1
    m_Data: {fileID: 21300068, guid: 18c2e9875be795244a037ebf31368a4b, type: 3}
  - m_RefCount: 1
    m_Data: {fileID: 21300070, guid: 18c2e9875be795244a037ebf31368a4b, type: 3}
  - m_RefCount: 1
    m_Data: {fileID: 21300072, guid: 18c2e9875be795244a037ebf31368a4b, type: 3}
  - m_RefCount: 1
    m_Data: {fileID: 21300074, guid: 18c2e9875be795244a037ebf31368a4b, type: 3}
  - m_RefCount: 1
    m_Data: {fileID: 21300076, guid: 18c2e9875be795244a037ebf31368a4b, type: 3}
  - m_RefCount: 1
    m_Data: {fileID: 21300078, guid: 18c2e9875be795244a037ebf31368a4b, type: 3}
  - m_RefCount: 1
    m_Data: {fileID: 21300080, guid: 18c2e9875be795244a037ebf31368a4b, type: 3}
  - m_RefCount: 1
    m_Data: {fileID: 21300082, guid: 18c2e9875be795244a037ebf31368a4b, type: 3}
  - m_RefCount: 1
    m_Data: {fileID: 21300084, guid: 18c2e9875be795244a037ebf31368a4b, type: 3}
  - m_RefCount: 1
    m_Data: {fileID: 21300086, guid: 18c2e9875be795244a037ebf31368a4b, type: 3}
  - m_RefCount: 1
    m_Data: {fileID: 21300088, guid: 18c2e9875be795244a037ebf31368a4b, type: 3}
  - m_RefCount: 1
    m_Data: {fileID: 21300090, guid: 18c2e9875be795244a037ebf31368a4b, type: 3}
  - m_RefCount: 1
    m_Data: {fileID: 21300092, guid: 18c2e9875be795244a037ebf31368a4b, type: 3}
  - m_RefCount: 1
    m_Data: {fileID: 21300094, guid: 18c2e9875be795244a037ebf31368a4b, type: 3}
  - m_RefCount: 1
    m_Data: {fileID: 21300096, guid: 18c2e9875be795244a037ebf31368a4b, type: 3}
  - m_RefCount: 1
    m_Data: {fileID: 21300098, guid: 18c2e9875be795244a037ebf31368a4b, type: 3}
  - m_RefCount: 1
    m_Data: {fileID: 21300100, guid: 18c2e9875be795244a037ebf31368a4b, type: 3}
  m_TileMatrixArray:
  - m_RefCount: 52
    m_Data:
      e00: 1
      e01: 0
      e02: 0
      e03: 0
      e10: 0
      e11: 1
      e12: 0
      e13: 0
      e20: 0
      e21: 0
      e22: 1
      e23: 0
      e30: 0
      e31: 0
      e32: 0
      e33: 1
  m_TileColorArray:
  - m_RefCount: 52
    m_Data: {r: 1, g: 1, b: 1, a: 1}
  m_AnimationFrameRate: 1
  m_Color: {r: 1, g: 1, b: 1, a: 1}
  m_Origin: {x: -1, y: -4, z: 0}
  m_Size: {x: 10, y: 10, z: 1}
  m_TileAnchor: {x: 0.5, y: 0.5, z: 0}
  m_TileOrientation: 0
  m_TileOrientationMatrix:
    e00: 1
    e01: 0
    e02: 0
    e03: 0
    e10: 0
    e11: 1
    e12: 0
    e13: 0
    e20: 0
    e21: 0
    e22: 1
    e23: 0
    e30: 0
    e31: 0
    e32: 0
    e33: 1
--- !u!483693784 &3719161428992148410
TilemapRenderer:
  m_ObjectHideFlags: 0
  m_CorrespondingSourceObject: {fileID: 0}
  m_PrefabInstance: {fileID: 0}
  m_PrefabAsset: {fileID: 0}
  m_GameObject: {fileID: 1798483002054539592}
  m_Enabled: 0
  m_CastShadows: 0
  m_ReceiveShadows: 0
  m_DynamicOccludee: 0
  m_MotionVectors: 1
  m_LightProbeUsage: 0
  m_ReflectionProbeUsage: 0
  m_RenderingLayerMask: 1
  m_RendererPriority: 0
  m_Materials:
  - {fileID: 10754, guid: 0000000000000000f000000000000000, type: 0}
  m_StaticBatchInfo:
    firstSubMesh: 0
    subMeshCount: 0
  m_StaticBatchRoot: {fileID: 0}
  m_ProbeAnchor: {fileID: 0}
  m_LightProbeVolumeOverride: {fileID: 0}
  m_ScaleInLightmap: 1
  m_PreserveUVs: 0
  m_IgnoreNormalsForChartDetection: 0
  m_ImportantGI: 0
  m_StitchLightmapSeams: 0
  m_SelectedEditorRenderState: 0
  m_MinimumChartSize: 4
  m_AutoUVMaxDistance: 0.5
  m_AutoUVMaxAngle: 89
  m_LightmapParameters: {fileID: 0}
  m_SortingLayerID: 0
  m_SortingLayer: 0
  m_SortingOrder: 0
  m_ChunkSize: {x: 32, y: 32, z: 32}
  m_ChunkCullingBounds: {x: 0, y: 0, z: 0}
  m_MaxChunkCount: 16
  m_MaxFrameAge: 16
  m_SortOrder: 0
  m_Mode: 0
  m_DetectChunkCullingBounds: 0
  m_MaskInteraction: 0
--- !u!1 &4278326525163001499
GameObject:
  m_ObjectHideFlags: 0
  m_CorrespondingSourceObject: {fileID: 0}
  m_PrefabInstance: {fileID: 0}
  m_PrefabAsset: {fileID: 0}
  serializedVersion: 6
  m_Component:
  - component: {fileID: 6840834353503201436}
  - component: {fileID: 6997224869809941572}
  m_Layer: 31
  m_Name: ForgroundTiles
  m_TagString: Untagged
  m_Icon: {fileID: 0}
  m_NavMeshLayer: 0
  m_StaticEditorFlags: 0
  m_IsActive: 1
--- !u!4 &6840834353503201436
Transform:
  m_ObjectHideFlags: 0
  m_CorrespondingSourceObject: {fileID: 0}
  m_PrefabInstance: {fileID: 0}
  m_PrefabAsset: {fileID: 0}
  m_GameObject: {fileID: 4278326525163001499}
  m_LocalRotation: {x: 0, y: 0, z: 0, w: 1}
  m_LocalPosition: {x: 0, y: 0, z: 0}
  m_LocalScale: {x: 1, y: 1, z: 1}
  m_Children:
  - {fileID: 4664981585191137942}
  m_Father: {fileID: 0}
  m_RootOrder: 0
  m_LocalEulerAnglesHint: {x: 0, y: 0, z: 0}
--- !u!156049354 &6997224869809941572
Grid:
  m_ObjectHideFlags: 0
  m_CorrespondingSourceObject: {fileID: 0}
  m_PrefabInstance: {fileID: 0}
  m_PrefabAsset: {fileID: 0}
  m_GameObject: {fileID: 4278326525163001499}
  m_Enabled: 1
  m_CellSize: {x: 1, y: 1, z: 0}
  m_CellGap: {x: 0, y: 0, z: 0}
  m_CellLayout: 0
  m_CellSwizzle: 0
--- !u!114 &114727393845840950
MonoBehaviour:
  m_ObjectHideFlags: 0
  m_CorrespondingSourceObject: {fileID: 0}
  m_PrefabInstance: {fileID: 0}
  m_PrefabAsset: {fileID: 0}
  m_GameObject: {fileID: 0}
  m_Enabled: 1
  m_EditorHideFlags: 0
  m_Script: {fileID: 12395, guid: 0000000000000000e000000000000000, type: 0}
  m_Name: Palette Settings
  m_EditorClassIdentifier: 
  cellSizing: 0
